Info: Starting: Create HDL design files for synthesis
Info: qsys-generate /home/maxi/Descargas/tesis/tramas-32bits/niosf_tx_tse_125mhz.qsys --synthesis=VERILOG --output-directory=/home/maxi/Descargas/tesis/tramas-32bits/niosf_tx_tse_125mhz/synthesis --family="Stratix IV" --part=EP4SGX530KH40C2
Progress: Loading tramas-32bits/niosf_tx_tse_125mhz.qsys
Progress: Reading input file
Progress: Adding generator [generator 1.0]
Progress: Parameterizing module generator
Progress: Adding jtag_uart [altera_avalon_jtag_uart 16.0]
Progress: Parameterizing module jtag_uart
Progress: Adding mm [altera_avalon_onchip_memory2 16.0]
Progress: Parameterizing module mm
Progress: Adding niosfast [altera_nios2_gen2 16.0]
Progress: Parameterizing module niosfast
Progress: Adding packet [packet 1.0]
Progress: Parameterizing module packet
Progress: Adding sc_fifo_0 [altera_avalon_sc_fifo 16.0]
Progress: Parameterizing module sc_fifo_0
Progress: Adding sys_clk [clock_source 16.0]
Progress: Parameterizing module sys_clk
Progress: Adding tse [altera_eth_tse 16.0]
Progress: Parameterizing module tse
Progress: Adding udp_payload_inserter [udp_payload_inserter 1.0]
Progress: Parameterizing module udp_payload_inserter
Progress: Building connections
Progress: Parameterizing connections
Progress: Validating
Progress: Done reading input file
Info: niosf_tx_tse_125mhz.jtag_uart: JTAG UART IP input clock need to be at least double (2x) the operating frequency of JTAG TCK on board
Info: niosf_tx_tse_125mhz.tse: MII/GMII is automatically selected in 10/100/1000 Mb Ethernet MAC with 1000BASE-X/SGMII PCS core variations
Warning: niosf_tx_tse_125mhz.tse.receive: tse.receive must be connected to an Avalon-ST sink
Warning: niosf_tx_tse_125mhz.tse: tse.mac_misc_connection must be exported, or connected to a matching conduit.
Warning: niosf_tx_tse_125mhz.tse: tse.status_led_connection must be exported, or connected to a matching conduit.
Warning: niosf_tx_tse_125mhz.tse: tse.serdes_control_connection must be exported, or connected to a matching conduit.
Info: niosf_tx_tse_125mhz: Generating niosf_tx_tse_125mhz "niosf_tx_tse_125mhz" for QUARTUS_SYNTH
Info: generator: "niosf_tx_tse_125mhz" instantiated generator "generator"
Info: jtag_uart: Starting RTL generation for module 'niosf_tx_tse_125mhz_jtag_uart'
Info: jtag_uart:   Generation command is [exec /opt/altera/16.0/quartus/linux64/perl/bin/perl -I /opt/altera/16.0/quartus/linux64/perl/lib -I /opt/altera/16.0/quartus/sopc_builder/bin/europa -I /opt/altera/16.0/quartus/sopc_builder/bin/perl_lib -I /opt/altera/16.0/quartus/sopc_builder/bin -I /opt/altera/16.0/quartus/../ip/altera/sopc_builder_ip/common -I /opt/altera/16.0/quartus/../ip/altera/sopc_builder_ip/altera_avalon_jtag_uart -- /opt/altera/16.0/quartus/../ip/altera/sopc_builder_ip/altera_avalon_jtag_uart/generate_rtl.pl --name=niosf_tx_tse_125mhz_jtag_uart --dir=/tmp/alt7303_8746437158870859912.dir/0002_jtag_uart_gen/ --quartus_dir=/opt/altera/16.0/quartus --verilog --config=/tmp/alt7303_8746437158870859912.dir/0002_jtag_uart_gen//niosf_tx_tse_125mhz_jtag_uart_component_configuration.pl  --do_build_sim=0  ]
Info: jtag_uart: Done RTL generation for module 'niosf_tx_tse_125mhz_jtag_uart'
Info: jtag_uart: "niosf_tx_tse_125mhz" instantiated altera_avalon_jtag_uart "jtag_uart"
Info: mm: Starting RTL generation for module 'niosf_tx_tse_125mhz_mm'
Info: mm:   Generation command is [exec /opt/altera/16.0/quartus/linux64/perl/bin/perl -I /opt/altera/16.0/quartus/linux64/perl/lib -I /opt/altera/16.0/quartus/sopc_builder/bin/europa -I /opt/altera/16.0/quartus/sopc_builder/bin/perl_lib -I /opt/altera/16.0/quartus/sopc_builder/bin -I /opt/altera/16.0/quartus/../ip/altera/sopc_builder_ip/common -I /opt/altera/16.0/quartus/../ip/altera/sopc_builder_ip/altera_avalon_onchip_memory2 -- /opt/altera/16.0/quartus/../ip/altera/sopc_builder_ip/altera_avalon_onchip_memory2/generate_rtl.pl --name=niosf_tx_tse_125mhz_mm --dir=/tmp/alt7303_8746437158870859912.dir/0003_mm_gen/ --quartus_dir=/opt/altera/16.0/quartus --verilog --config=/tmp/alt7303_8746437158870859912.dir/0003_mm_gen//niosf_tx_tse_125mhz_mm_component_configuration.pl  --do_build_sim=0  ]
Info: mm: Done RTL generation for module 'niosf_tx_tse_125mhz_mm'
Info: mm: "niosf_tx_tse_125mhz" instantiated altera_avalon_onchip_memory2 "mm"
Info: niosfast: "niosf_tx_tse_125mhz" instantiated altera_nios2_gen2 "niosfast"
Info: packet: "niosf_tx_tse_125mhz" instantiated packet "packet"
Info: sc_fifo_0: "niosf_tx_tse_125mhz" instantiated altera_avalon_sc_fifo "sc_fifo_0"
Info: tse: "niosf_tx_tse_125mhz" instantiated altera_eth_tse "tse"
Info: udp_payload_inserter: "niosf_tx_tse_125mhz" instantiated udp_payload_inserter "udp_payload_inserter"
Info: avalon_st_adapter: Inserting error_adapter: error_adapter_0
Info: avalon_st_adapter_001: Inserting error_adapter: error_adapter_0
Info: avalon_st_adapter_002: Inserting error_adapter: error_adapter_0
Info: avalon_st_adapter_003: Inserting error_adapter: error_adapter_0
Info: avalon_st_adapter_004: Inserting error_adapter: error_adapter_0
Info: avalon_st_adapter_005: Inserting error_adapter: error_adapter_0
Info: avalon_st_adapter_006: Inserting error_adapter: error_adapter_0
Info: mm_interconnect_0: "niosf_tx_tse_125mhz" instantiated altera_mm_interconnect "mm_interconnect_0"
Info: irq_mapper: "niosf_tx_tse_125mhz" instantiated altera_irq_mapper "irq_mapper"
Info: rst_controller: "niosf_tx_tse_125mhz" instantiated altera_reset_controller "rst_controller"
Info: cpu: Starting RTL generation for module 'niosf_tx_tse_125mhz_niosfast_cpu'
Info: cpu:   Generation command is [exec /opt/altera/16.0/quartus/linux64//eperlcmd -I /opt/altera/16.0/quartus/linux64//perl/lib -I /opt/altera/16.0/quartus/sopc_builder/bin/europa -I /opt/altera/16.0/quartus/sopc_builder/bin/perl_lib -I /opt/altera/16.0/quartus/sopc_builder/bin -I /opt/altera/16.0/quartus/../ip/altera/nios2_ip/altera_nios2_gen2/cpu_lib -I /opt/altera/16.0/quartus/../ip/altera/nios2_ip/altera_nios2_gen2/nios_lib -I /opt/altera/16.0/quartus/../ip/altera/nios2_ip/altera_nios2_gen2 -I /opt/altera/16.0/quartus/../ip/altera/nios2_ip/altera_nios2_gen2 -- /opt/altera/16.0/quartus/../ip/altera/nios2_ip/altera_nios2_gen2/generate_rtl.epl --name=niosf_tx_tse_125mhz_niosfast_cpu --dir=/tmp/alt7303_8746437158870859912.dir/0009_cpu_gen/ --quartus_bindir=/opt/altera/16.0/quartus/linux64/ --verilog --config=/tmp/alt7303_8746437158870859912.dir/0009_cpu_gen//niosf_tx_tse_125mhz_niosfast_cpu_processor_configuration.pl  --do_build_sim=0  ]
Info: cpu: # 2017.05.17 11:24:33 (*) Starting Nios II generation
Info: cpu: # 2017.05.17 11:24:33 (*)   Checking for plaintext license.
Info: cpu: # 2017.05.17 11:24:34 (*)   Plaintext license not found.
Info: cpu: # 2017.05.17 11:24:34 (*)   Checking for encrypted license (non-evaluation).
Info: cpu: # 2017.05.17 11:24:35 (*)   Encrypted license not found.  Defaulting to OCP evaluation license (produces a time-limited SOF)
Info: cpu: # 2017.05.17 11:24:35 (*)   Elaborating CPU configuration settings
Info: cpu: # 2017.05.17 11:24:35 (*)   Creating all objects for CPU
Info: cpu: # 2017.05.17 11:24:35 (*)     Testbench
Info: cpu: # 2017.05.17 11:24:36 (*)     Instruction decoding
Info: cpu: # 2017.05.17 11:24:36 (*)       Instruction fields
Info: cpu: # 2017.05.17 11:24:36 (*)       Instruction decodes
Info: cpu: # 2017.05.17 11:24:37 (*)       Signals for RTL simulation waveforms
Info: cpu: # 2017.05.17 11:24:37 (*)       Instruction controls
Info: cpu: # 2017.05.17 11:24:37 (*)     Pipeline frontend
Info: cpu: # 2017.05.17 11:24:37 (*)     Pipeline backend
Info: cpu: # 2017.05.17 11:24:41 (*)   Generating RTL from CPU objects
Info: cpu: # 2017.05.17 11:24:44 (*)   Creating encrypted RTL
Info: cpu: # 2017.05.17 11:24:45 (*) Done Nios II generation
Info: cpu: Done RTL generation for module 'niosf_tx_tse_125mhz_niosfast_cpu'
Info: cpu: "niosfast" instantiated altera_nios2_gen2_unit "cpu"
Info: i_tse_mac: "tse" instantiated altera_eth_tse_mac "i_tse_mac"
Info: avalon_arbiter: "tse" instantiated altera_eth_tse_avalon_arbiter "avalon_arbiter"
Info: i_tse_pcs_0: "tse" instantiated altera_eth_tse_pcs_pma_lvds "i_tse_pcs_0"
Info: Reusing file /home/maxi/Descargas/tesis/tramas-32bits/niosf_tx_tse_125mhz/synthesis/submodules/altera_eth_tse_std_synchronizer.v
Info: Reusing file /home/maxi/Descargas/tesis/tramas-32bits/niosf_tx_tse_125mhz/synthesis/submodules/altera_eth_tse_std_synchronizer_bundle.v
Info: Reusing file /home/maxi/Descargas/tesis/tramas-32bits/niosf_tx_tse_125mhz/synthesis/submodules/altera_tse_false_path_marker.v
Info: Reusing file /home/maxi/Descargas/tesis/tramas-32bits/niosf_tx_tse_125mhz/synthesis/submodules/altera_tse_reset_synchronizer.v
Info: Reusing file /home/maxi/Descargas/tesis/tramas-32bits/niosf_tx_tse_125mhz/synthesis/submodules/altera_tse_clock_crosser.v
Info: Reusing file /home/maxi/Descargas/tesis/tramas-32bits/niosf_tx_tse_125mhz/synthesis/submodules/altera_tse_a_fifo_13.v
Info: Reusing file /home/maxi/Descargas/tesis/tramas-32bits/niosf_tx_tse_125mhz/synthesis/submodules/altera_tse_a_fifo_24.v
Info: Reusing file /home/maxi/Descargas/tesis/tramas-32bits/niosf_tx_tse_125mhz/synthesis/submodules/altera_tse_a_fifo_34.v
Info: Reusing file /home/maxi/Descargas/tesis/tramas-32bits/niosf_tx_tse_125mhz/synthesis/submodules/altera_tse_a_fifo_opt_1246.v
Info: Reusing file /home/maxi/Descargas/tesis/tramas-32bits/niosf_tx_tse_125mhz/synthesis/submodules/altera_tse_a_fifo_opt_14_44.v
Info: Reusing file /home/maxi/Descargas/tesis/tramas-32bits/niosf_tx_tse_125mhz/synthesis/submodules/altera_tse_a_fifo_opt_36_10.v
Info: Reusing file /home/maxi/Descargas/tesis/tramas-32bits/niosf_tx_tse_125mhz/synthesis/submodules/altera_tse_gray_cnt.v
Info: Reusing file /home/maxi/Descargas/tesis/tramas-32bits/niosf_tx_tse_125mhz/synthesis/submodules/altera_tse_sdpm_altsyncram.v
Info: Reusing file /home/maxi/Descargas/tesis/tramas-32bits/niosf_tx_tse_125mhz/synthesis/submodules/altera_tse_altsyncram_dpm_fifo.v
Info: Reusing file /home/maxi/Descargas/tesis/tramas-32bits/niosf_tx_tse_125mhz/synthesis/submodules/altera_tse_bin_cnt.v
Info: Reusing file /home/maxi/Descargas/tesis/tramas-32bits/niosf_tx_tse_125mhz/synthesis/submodules/altera_tse_ph_calculator.sv
Info: Reusing file /home/maxi/Descargas/tesis/tramas-32bits/niosf_tx_tse_125mhz/synthesis/submodules/altera_tse_sdpm_gen.v
Info: Reusing file /home/maxi/Descargas/tesis/tramas-32bits/niosf_tx_tse_125mhz/synthesis/submodules/altera_tse_ecc_dec_x10.v
Info: Reusing file /home/maxi/Descargas/tesis/tramas-32bits/niosf_tx_tse_125mhz/synthesis/submodules/altera_tse_ecc_enc_x10.v
Info: Reusing file /home/maxi/Descargas/tesis/tramas-32bits/niosf_tx_tse_125mhz/synthesis/submodules/altera_tse_ecc_enc_x10_wrapper.v
Info: Reusing file /home/maxi/Descargas/tesis/tramas-32bits/niosf_tx_tse_125mhz/synthesis/submodules/altera_tse_ecc_dec_x14.v
Info: Reusing file /home/maxi/Descargas/tesis/tramas-32bits/niosf_tx_tse_125mhz/synthesis/submodules/altera_tse_ecc_enc_x14.v
Info: Reusing file /home/maxi/Descargas/tesis/tramas-32bits/niosf_tx_tse_125mhz/synthesis/submodules/altera_tse_ecc_enc_x14_wrapper.v
Info: Reusing file /home/maxi/Descargas/tesis/tramas-32bits/niosf_tx_tse_125mhz/synthesis/submodules/altera_tse_ecc_dec_x2.v
Info: Reusing file /home/maxi/Descargas/tesis/tramas-32bits/niosf_tx_tse_125mhz/synthesis/submodules/altera_tse_ecc_enc_x2.v
Info: Reusing file /home/maxi/Descargas/tesis/tramas-32bits/niosf_tx_tse_125mhz/synthesis/submodules/altera_tse_ecc_enc_x2_wrapper.v
Info: Reusing file /home/maxi/Descargas/tesis/tramas-32bits/niosf_tx_tse_125mhz/synthesis/submodules/altera_tse_ecc_dec_x23.v
Info: Reusing file /home/maxi/Descargas/tesis/tramas-32bits/niosf_tx_tse_125mhz/synthesis/submodules/altera_tse_ecc_enc_x23.v
Info: Reusing file /home/maxi/Descargas/tesis/tramas-32bits/niosf_tx_tse_125mhz/synthesis/submodules/altera_tse_ecc_enc_x23_wrapper.v
Info: Reusing file /home/maxi/Descargas/tesis/tramas-32bits/niosf_tx_tse_125mhz/synthesis/submodules/altera_tse_ecc_dec_x36.v
Info: Reusing file /home/maxi/Descargas/tesis/tramas-32bits/niosf_tx_tse_125mhz/synthesis/submodules/altera_tse_ecc_enc_x36.v
Info: Reusing file /home/maxi/Descargas/tesis/tramas-32bits/niosf_tx_tse_125mhz/synthesis/submodules/altera_tse_ecc_enc_x36_wrapper.v
Info: Reusing file /home/maxi/Descargas/tesis/tramas-32bits/niosf_tx_tse_125mhz/synthesis/submodules/altera_tse_ecc_dec_x40.v
Info: Reusing file /home/maxi/Descargas/tesis/tramas-32bits/niosf_tx_tse_125mhz/synthesis/submodules/altera_tse_ecc_enc_x40.v
Info: Reusing file /home/maxi/Descargas/tesis/tramas-32bits/niosf_tx_tse_125mhz/synthesis/submodules/altera_tse_ecc_enc_x40_wrapper.v
Info: Reusing file /home/maxi/Descargas/tesis/tramas-32bits/niosf_tx_tse_125mhz/synthesis/submodules/altera_tse_ecc_dec_x30.v
Info: Reusing file /home/maxi/Descargas/tesis/tramas-32bits/niosf_tx_tse_125mhz/synthesis/submodules/altera_tse_ecc_enc_x30.v
Info: Reusing file /home/maxi/Descargas/tesis/tramas-32bits/niosf_tx_tse_125mhz/synthesis/submodules/altera_tse_ecc_enc_x30_wrapper.v
Info: Reusing file /home/maxi/Descargas/tesis/tramas-32bits/niosf_tx_tse_125mhz/synthesis/submodules/altera_tse_ecc_status_crosser.v
Info: niosfast_data_master_translator: "mm_interconnect_0" instantiated altera_merlin_master_translator "niosfast_data_master_translator"
Info: jtag_uart_avalon_jtag_slave_translator: "mm_interconnect_0" instantiated altera_merlin_slave_translator "jtag_uart_avalon_jtag_slave_translator"
Info: niosfast_data_master_agent: "mm_interconnect_0" instantiated altera_merlin_master_agent "niosfast_data_master_agent"
Info: jtag_uart_avalon_jtag_slave_agent: "mm_interconnect_0" instantiated altera_merlin_slave_agent "jtag_uart_avalon_jtag_slave_agent"
Info: router: "mm_interconnect_0" instantiated altera_merlin_router "router"
Info: router_001: "mm_interconnect_0" instantiated altera_merlin_router "router_001"
Info: router_002: "mm_interconnect_0" instantiated altera_merlin_router "router_002"
Info: router_003: "mm_interconnect_0" instantiated altera_merlin_router "router_003"
Info: niosfast_instruction_master_limiter: "mm_interconnect_0" instantiated altera_merlin_traffic_limiter "niosfast_instruction_master_limiter"
Info: Reusing file /home/maxi/Descargas/tesis/tramas-32bits/niosf_tx_tse_125mhz/synthesis/submodules/altera_avalon_sc_fifo.v
Info: cmd_demux: "mm_interconnect_0" instantiated altera_merlin_demultiplexer "cmd_demux"
Info: cmd_demux_001: "mm_interconnect_0" instantiated altera_merlin_demultiplexer "cmd_demux_001"
Info: cmd_mux: "mm_interconnect_0" instantiated altera_merlin_multiplexer "cmd_mux"
Info: cmd_mux_001: "mm_interconnect_0" instantiated altera_merlin_multiplexer "cmd_mux_001"
Info: Reusing file /home/maxi/Descargas/tesis/tramas-32bits/niosf_tx_tse_125mhz/synthesis/submodules/altera_merlin_arbitrator.sv
Info: rsp_demux: "mm_interconnect_0" instantiated altera_merlin_demultiplexer "rsp_demux"
Info: rsp_demux_001: "mm_interconnect_0" instantiated altera_merlin_demultiplexer "rsp_demux_001"
Info: rsp_mux: "mm_interconnect_0" instantiated altera_merlin_multiplexer "rsp_mux"
Info: Reusing file /home/maxi/Descargas/tesis/tramas-32bits/niosf_tx_tse_125mhz/synthesis/submodules/altera_merlin_arbitrator.sv
Info: rsp_mux_001: "mm_interconnect_0" instantiated altera_merlin_multiplexer "rsp_mux_001"
Info: Reusing file /home/maxi/Descargas/tesis/tramas-32bits/niosf_tx_tse_125mhz/synthesis/submodules/altera_merlin_arbitrator.sv
Info: avalon_st_adapter: "mm_interconnect_0" instantiated altera_avalon_st_adapter "avalon_st_adapter"
Info: error_adapter_0: "avalon_st_adapter" instantiated error_adapter "error_adapter_0"
Info: niosf_tx_tse_125mhz: Done "niosf_tx_tse_125mhz" with 35 modules, 208 files
Info: qsys-generate succeeded.
Info: Finished: Create HDL design files for synthesis
