-- begin_signature
-- altera_tse_enc8b10b(SYNCHRONIZER_DEPTH
-- 3)
-- end_signature
WIDTH=6;
DEPTH=64;

ADDRESS_RADIX=UNS;
DATA_RADIX=BIN;

CONTENT BEGIN
	63 :	001010;
	62 :	100001;
	61 :	100010;
	60 :	011100;
	59 :	100100;
	58 :	011010;
	57 :	011001;
	56 :	001100;
	55 :	101000;
	54 :	010110;
	53 :	010101;
	52 :	110100;
	51 :	010011;
	50 :	110010;
	49 :	110001;
	48 :	001001;
	47 :	000101;
	46 :	001110;
	45 :	001101;
	44 :	101100;
	43 :	001011;
	42 :	101010;
	41 :	101001;
	40 :	011000;
	39 :	111000;
	38 :	100110;
	37 :	100101;
	36 :	010100;
	35 :	100011;
	34 :	010010;
	33 :	010001;
	32 :	000110;
	31 :	110101;
	30 :	011110;
	29 :	011101;
	28 :	011100;
	27 :	011011;
	26 :	011010;
	25 :	011001;
	24 :	110011;
	23 :	010111;
	22 :	010110;
	21 :	010101;
	20 :	110100;
	19 :	010011;
	18 :	110010;
	17 :	110001;
	16 :	110110;
	15 :	111010;
	14 :	001110;
	13 :	001101;
	12 :	101100;
	11 :	001011;
	10 :	101010;
	9 :	101001;
	8 :	100111;
	7 :	000111;
	6 :	100110;
	5 :	100101;
	4 :	101011;
	3 :	100011;
	2 :	101101;
	1 :	101110;
	0 :	111001;
END;
